{
  "links": {
    "next": "https://back.staging.bsport.io/api/v1/offer/?company=6&max_date=2020-04-15&min_date=2020-04-10&page=2&page_size=10",
    "previous": null
  },
  "next_page": 2,
  "count": 16,
  "results": [
    {
      "company": 6,
      "activity": 218,
      "level": 2,
      "available": true,
      "coach_override": null,
      "coach": 43,
      "establishment": 16,
      "meta_activity": 65,
      "credit_price_override": 1,
      "credit_price": 1,
      "date_start": "2020-04-10T11:00:00+02:00",
      "duration_minute": 60,
      "effectif": 10,
      "establishment_override": null,
      "id": 3556,
      "recurrence_id": "e049b89c-bd12-4b7a-9f12-b88a082d4c2f",
      "waiting_list_max_size": 3,
      "waiting_list_disabled": false,
      "bookings": [],
      "booking_options": [],
      "meta_activity_color": "",
      "tot_slots": 0,
      "validated_booking_count": 0,
      "full": false
    },
    {
      "company": 6,
      "activity": 76,
      "level": 1,
      "available": true,
      "coach_override": null,
      "coach": 43,
      "establishment": 18,
      "meta_activity": 62,
      "credit_price_override": 1,
      "credit_price": 1,
      "date_start": "2020-04-10T13:00:00+02:00",
      "duration_minute": 90,
      "effectif": 10,
      "establishment_override": null,
      "id": 3199,
      "recurrence_id": "990f26a0-d4d1-4da6-ac2e-5ea3fbb9d68e",
      "waiting_list_max_size": 5,
      "waiting_list_disabled": false,
      "bookings": [],
      "booking_options": [],
      "meta_activity_color": "#9b9b9b",
      "tot_slots": 0,
      "validated_booking_count": 0,
      "full": false
    },
    {
      "company": 6,
      "activity": 190,
      "level": 1,
      "available": true,
      "coach_override": null,
      "coach": 43,
      "establishment": 19,
      "meta_activity": 49,
      "credit_price_override": 1,
      "credit_price": 1,
      "date_start": "2020-04-11T10:00:00+02:00",
      "duration_minute": 60,
      "effectif": 20,
      "establishment_override": null,
      "id": 4129,
      "recurrence_id": "723c6e1f-9cf1-4e09-8d5f-e2affd80315f",
      "waiting_list_max_size": 5,
      "waiting_list_disabled": false,
      "bookings": [],
      "booking_options": [],
      "meta_activity_color": "",
      "tot_slots": 0,
      "validated_booking_count": 0,
      "full": false
    },
    {
      "company": 6,
      "activity": 77,
      "level": 1,
      "available": true,
      "coach_override": null,
      "coach": 46,
      "establishment": 18,
      "meta_activity": 63,
      "credit_price_override": 1,
      "credit_price": 1,
      "date_start": "2020-04-11T13:00:00+02:00",
      "duration_minute": 30,
      "effectif": 10,
      "establishment_override": null,
      "id": 3269,
      "recurrence_id": "46a693af-6fe1-4415-afb5-f40209561d2d",
      "waiting_list_max_size": 5,
      "waiting_list_disabled": false,
      "bookings": [],
      "booking_options": [],
      "meta_activity_color": "#9013fe",
      "tot_slots": 0,
      "validated_booking_count": 0,
      "full": false
    },
    {
      "company": 6,
      "activity": 237,
      "level": 1,
      "available": true,
      "coach_override": null,
      "coach": 45,
      "establishment": 16,
      "meta_activity": 147,
      "credit_price_override": 1,
      "credit_price": 1,
      "date_start": "2020-04-12T18:00:00+02:00",
      "duration_minute": 90,
      "effectif": 20,
      "establishment_override": null,
      "id": 9849,
      "recurrence_id": "79250588-8793-48d4-b8ed-9b3de0da9f38",
      "waiting_list_max_size": 2,
      "waiting_list_disabled": false,
      "bookings": [],
      "booking_options": [],
      "meta_activity_color": "#8b572a",
      "tot_slots": 0,
      "validated_booking_count": 0,
      "full": false
    },
    {
      "company": 6,
      "activity": 193,
      "level": 1,
      "available": true,
      "coach_override": null,
      "coach": 46,
      "establishment": 16,
      "meta_activity": 49,
      "credit_price_override": 1,
      "credit_price": 1,
      "date_start": "2020-04-13T09:00:00+02:00",
      "duration_minute": 90,
      "effectif": 20,
      "establishment_override": null,
      "id": 2903,
      "recurrence_id": "5d789349-c672-4937-8976-7ad49febffcf",
      "waiting_list_max_size": 5,
      "waiting_list_disabled": false,
      "bookings": [],
      "booking_options": [],
      "meta_activity_color": "",
      "tot_slots": 0,
      "validated_booking_count": 0,
      "full": false
    },
    {
      "company": 6,
      "activity": 202,
      "level": 1,
      "available": true,
      "coach_override": null,
      "coach": 47,
      "establishment": 16,
      "meta_activity": 103,
      "credit_price_override": 1,
      "credit_price": 1,
      "date_start": "2020-04-13T10:00:00+02:00",
      "duration_minute": 60,
      "effectif": 5,
      "establishment_override": null,
      "id": 8777,
      "recurrence_id": "8f0ae301-46cd-4de2-bd03-5e8ed64441e4",
      "waiting_list_max_size": 2,
      "waiting_list_disabled": false,
      "bookings": [],
      "booking_options": [],
      "meta_activity_color": "#7ed321",
      "tot_slots": 0,
      "validated_booking_count": 0,
      "full": false
    },
    {
      "company": 6,
      "activity": 78,
      "level": 1,
      "available": true,
      "coach_override": null,
      "coach": 42,
      "establishment": 18,
      "meta_activity": 64,
      "credit_price_override": 1,
      "credit_price": 1,
      "date_start": "2020-04-13T13:00:00+02:00",
      "duration_minute": 30,
      "effectif": 8,
      "establishment_override": null,
      "id": 3341,
      "recurrence_id": "9889d961-a31e-46ad-beba-aa0cc41f9f48",
      "waiting_list_max_size": 4,
      "waiting_list_disabled": false,
      "bookings": [],
      "booking_options": [],
      "meta_activity_color": "",
      "tot_slots": 0,
      "validated_booking_count": 0,
      "full": false
    },
    {
      "company": 6,
      "activity": 265,
      "level": 1,
      "available": true,
      "coach_override": null,
      "coach": 42,
      "establishment": 18,
      "meta_activity": 49,
      "credit_price_override": 1,
      "credit_price": 1,
      "date_start": "2020-04-13T14:00:00+02:00",
      "duration_minute": 60,
      "effectif": 10,
      "establishment_override": null,
      "id": 14220,
      "recurrence_id": "90cff515-27b7-4736-832f-aa321bed9e7a",
      "waiting_list_max_size": 2,
      "waiting_list_disabled": false,
      "bookings": [],
      "booking_options": [],
      "meta_activity_color": "",
      "tot_slots": 0,
      "validated_booking_count": 0,
      "full": false
    },
    {
      "company": 6,
      "activity": 230,
      "level": 1,
      "available": true,
      "coach_override": null,
      "coach": 42,
      "establishment": 16,
      "meta_activity": 119,
      "credit_price_override": 1,
      "credit_price": 1,
      "date_start": "2020-04-14T10:00:00+02:00",
      "duration_minute": 15,
      "effectif": 16,
      "establishment_override": null,
      "id": 9664,
      "recurrence_id": "24880928-6738-411b-b1f4-1dba20058dfc",
      "waiting_list_max_size": 4,
      "waiting_list_disabled": false,
      "bookings": [],
      "booking_options": [],
      "meta_activity_color": "",
      "tot_slots": 0,
      "validated_booking_count": 0,
      "full": false
    }
  ]
}